{
	"ulid": "01GXZ24ZJYK3FGTXSA3MZ58SRB",
	"minTime": 1681367437233,
	"maxTime": 1681423200000,
	"stats": {
		"numSamples": 935520,
		"numSeries": 826,
		"numChunks": 8977
	},
	"compaction": {
		"level": 3,
		"sources": [
			"01GXXFAW6Y1F8PTFM5HE1PXXA1",
			"01GXXSMDY72VYCV71EC2AX5S3T",
			"01GXY0G586MR4PCXBSVE4P6ZJZ",
			"01GXYJ56HAPY598NYJ53H6XQGW",
			"01GXYJ571140EDA7H9DTZ857WN"
		],
		"parents": [
			{
				"ulid": "01GXXFAW6Y1F8PTFM5HE1PXXA1",
				"minTime": 1681367437233,
				"maxTime": 1681372800000
			},
			{
				"ulid": "01GXYJ583VP0JPRE2YNQQBHR2R",
				"minTime": 1681395116301,
				"maxTime": 1681408800000
			},
			{
				"ulid": "01GXZ24Z3F47J1DZR1EJ20X9KQ",
				"minTime": 1681408800000,
				"maxTime": 1681423200000
			}
		]
	},
	"version": 1
}